<svg width="168" height="112" viewBox="0 0 168 112" fill="none" xmlns="http://www.w3.org/2000/svg">
<path d="M2.98096 3.62207V43.0162C2.98096 46.8072 5.79045 49.8799 9.25655 49.8799H81.1423C84.6084 49.8799 87.4179 52.9526 87.4179 56.7436V101.132C87.4179 104.923 90.2274 107.996 93.6935 107.996H164.094" stroke="#FEE035" stroke-miterlimit="10"/>
<path d="M2.98119 6.88308C4.62766 6.88308 5.96259 5.42325 5.96259 3.62245C5.96259 1.82165 4.62766 0.361816 2.98119 0.361816C1.33472 0.361816 0 1.82165 0 3.62245C0 5.42325 1.33472 6.88308 2.98119 6.88308Z" fill="#FEE035"/>
<path d="M164.095 111.254C165.741 111.254 167.076 109.794 167.076 107.994C167.076 106.193 165.741 104.733 164.095 104.733C162.448 104.733 161.114 106.193 161.114 107.994C161.114 109.794 162.448 111.254 164.095 111.254Z" fill="#FEE035"/>
</svg>
