<svg width="73" height="73" viewBox="0 0 73 73" fill="none" xmlns="http://www.w3.org/2000/svg">
<rect width="72" height="72" transform="translate(0.406982 0.681152)" fill="#A811E9"/>
<g clip-path="url(#clip0_1017_4122)">
<path d="M36.407 56.2279L25.8003 45.6212C23.7026 43.5234 22.274 40.8506 21.6952 37.9409C21.1164 35.0312 21.4135 32.0152 22.5488 29.2744C23.6841 26.5335 25.6067 24.1908 28.0735 22.5426C30.5402 20.8944 33.4403 20.0146 36.407 20.0146C39.3737 20.0146 42.2738 20.8944 44.7405 22.5426C47.2073 24.1908 49.1298 26.5335 50.2652 29.2744C51.4005 32.0152 51.6975 35.0312 51.1188 37.9409C50.54 40.8506 49.1114 43.5234 47.0137 45.6212L36.407 56.2279ZM44.657 43.2645C46.2885 41.6329 47.3995 39.5541 47.8496 37.291C48.2996 35.0279 48.0685 32.6822 47.1855 30.5504C46.3024 28.4187 44.8071 26.5967 42.8885 25.3148C40.97 24.0329 38.7144 23.3487 36.407 23.3487C34.0996 23.3487 31.844 24.0329 29.9255 25.3148C28.0069 26.5967 26.5116 28.4187 25.6285 30.5504C24.7455 32.6822 24.5143 35.0279 24.9644 37.291C25.4145 39.5541 26.5255 41.6329 28.157 43.2645L36.407 51.5145L44.657 43.2645ZM36.407 38.3479C35.5229 38.3479 34.6751 37.9967 34.05 37.3715C33.4248 36.7464 33.0737 35.8986 33.0737 35.0145C33.0737 34.1305 33.4248 33.2826 34.05 32.6575C34.6751 32.0324 35.5229 31.6812 36.407 31.6812C37.291 31.6812 38.1389 32.0324 38.764 32.6575C39.3891 33.2826 39.7403 34.1305 39.7403 35.0145C39.7403 35.8986 39.3891 36.7464 38.764 37.3715C38.1389 37.9967 37.291 38.3479 36.407 38.3479Z" fill="white"/>
</g>
<defs>
<clipPath id="clip0_1017_4122">
<rect width="40" height="40" fill="white" transform="translate(16.407 16.6812)"/>
</clipPath>
</defs>
</svg>
