<svg width="43" height="43" viewBox="0 0 43 43" fill="none" xmlns="http://www.w3.org/2000/svg">
<path d="M21.0171 25.3066V43H21.9852V25.3066C21.8268 25.3264 21.6649 25.3372 21.5011 25.3372C21.3374 25.339 21.1754 25.3264 21.0171 25.3066Z" fill="#11CFE9"/>
<path d="M21.9852 17.6934V0H21.0171V17.6934C21.1754 17.6736 21.3374 17.6628 21.5011 17.6628C21.6649 17.661 21.8268 17.6736 21.9852 17.6934Z" fill="#11CFE9"/>
<path d="M25.3066 21.9832H43V21.0151H25.3066C25.3264 21.1735 25.3372 21.3354 25.3372 21.4992C25.3372 21.6629 25.3264 21.8248 25.3066 21.9832Z" fill="#11CFE9"/>
<path d="M17.6934 21.0171H0V21.9852H17.6934C17.6736 21.8269 17.6628 21.6649 17.6628 21.5012C17.6628 21.3375 17.6736 21.1754 17.6934 21.0171Z" fill="#11CFE9"/>
<path d="M19.151 18.4653L6.63981 5.9541L5.95605 6.63792L18.4672 19.149C18.6651 18.8935 18.8954 18.665 19.151 18.4653Z" fill="#11CFE9"/>
<path d="M23.8506 24.5344L36.3617 37.0455L37.0455 36.3618L24.5344 23.8506C24.3364 24.1061 24.1061 24.3347 23.8506 24.5344Z" fill="#11CFE9"/>
<path d="M24.5344 19.151L37.0455 6.63979L36.3617 5.95605L23.8506 18.4672C24.1061 18.6651 24.3364 18.8937 24.5344 19.151Z" fill="#11CFE9"/>
<path d="M18.4672 23.8491L5.95605 36.3602L6.63981 37.0441L19.151 24.5329C18.8954 24.3349 18.6651 24.1064 18.4672 23.8491Z" fill="#11CFE9"/>
</svg>
