<svg width="32" height="32" viewBox="0 0 32 32" fill="none" xmlns="http://www.w3.org/2000/svg">
<path d="M5.76006 2.55957C4.00037 2.55957 2.56006 3.99988 2.56006 5.75957V26.2396C2.56006 27.9993 4.00037 29.4396 5.76006 29.4396H26.2401C27.9998 29.4396 29.4401 27.9993 29.4401 26.2396V5.75957C29.4401 3.99988 27.9998 2.55957 26.2401 2.55957H5.76006ZM5.76006 3.83957H26.2401C27.3079 3.83957 28.1601 4.69174 28.1601 5.75957V26.2396C28.1601 27.3074 27.3079 28.1596 26.2401 28.1596H5.76006C4.69223 28.1596 3.84006 27.3074 3.84006 26.2396V5.75957C3.84006 4.69174 4.69223 3.83957 5.76006 3.83957ZM8.96006 7.04707C8.25912 7.04707 7.62836 7.25658 7.16131 7.64957C6.69426 8.04256 6.40756 8.62966 6.40756 9.25832C6.40756 10.4533 7.44408 11.3849 8.76256 11.4771C8.76339 11.4775 8.76422 11.4779 8.76506 11.4783C8.82788 11.4997 8.89369 11.5111 8.96006 11.5121C10.4148 11.5121 11.5126 10.4931 11.5126 9.25832C11.5124 9.24706 11.512 9.23581 11.5113 9.22457C11.4462 8.00842 10.3619 7.04707 8.96006 7.04707ZM8.96006 8.31207C9.85109 8.31207 10.2029 8.71 10.2413 9.27457C10.2335 9.82257 9.89452 10.2471 8.96006 10.2471C8.0734 10.2471 7.67256 9.79299 7.67256 9.25832C7.67256 8.99098 7.77011 8.78952 7.97506 8.61707C8.18001 8.44462 8.509 8.31207 8.96006 8.31207ZM7.04006 12.1596C6.87033 12.1596 6.70755 12.227 6.58753 12.347C6.46751 12.4671 6.40008 12.6298 6.40006 12.7996V24.9596C6.40008 25.1293 6.46751 25.2921 6.58753 25.4121C6.70755 25.5321 6.87033 25.5996 7.04006 25.5996H10.8801C11.0498 25.5996 11.2126 25.5321 11.3326 25.4121C11.4526 25.2921 11.52 25.1293 11.5201 24.9596V21.2058V12.7996C11.52 12.6298 11.4526 12.4671 11.3326 12.347C11.2126 12.227 11.0498 12.1596 10.8801 12.1596H7.04006ZM12.8001 12.1596C12.6303 12.1596 12.4675 12.227 12.3475 12.347C12.2275 12.4671 12.1601 12.6298 12.1601 12.7996V24.9596C12.1601 25.1293 12.2275 25.2921 12.3475 25.4121C12.4675 25.5321 12.6303 25.5996 12.8001 25.5996H16.6401C16.8098 25.5996 16.9726 25.5321 17.0926 25.4121C17.2126 25.2921 17.28 25.1293 17.2801 24.9596V18.5596C17.2801 18.0286 17.425 17.5004 17.6801 17.1546C17.9352 16.8087 18.257 16.6012 18.8688 16.6121C19.4997 16.6229 19.8337 16.839 20.0863 17.1783C20.339 17.5176 20.4801 18.0262 20.4801 18.5596V24.9596C20.4801 25.1293 20.5475 25.2921 20.6675 25.4121C20.7875 25.5321 20.9503 25.5996 21.1201 25.5996H24.9601C25.1298 25.5996 25.2926 25.5321 25.4126 25.4121C25.5326 25.2921 25.6 25.1293 25.6001 24.9596V18.0871C25.6001 16.1917 25.0386 14.6903 24.0763 13.6746C23.114 12.6588 21.7755 12.1596 20.3601 12.1596C19.0148 12.1596 17.991 12.6107 17.2801 13.0708V12.7996C17.28 12.6298 17.2126 12.4671 17.0926 12.347C16.9726 12.227 16.8098 12.1596 16.6401 12.1596H12.8001ZM7.68006 13.4396H10.2401V21.2058V24.3196H7.68006V13.4396ZM13.4401 13.4396H16.0001V14.4383C16.0001 14.5725 16.0423 14.7033 16.1207 14.8122C16.1992 14.9211 16.3099 15.0026 16.4371 15.0452C16.5644 15.0877 16.7018 15.0892 16.83 15.0494C16.9581 15.0096 17.0705 14.9305 17.1513 14.8233C17.1513 14.8233 18.1563 13.4396 20.3601 13.4396C21.4822 13.4396 22.4445 13.8124 23.1476 14.5546C23.8507 15.2967 24.3201 16.4401 24.3201 18.0871V24.3196H21.7601V18.5596C21.7601 17.8129 21.5812 17.0409 21.1138 16.4133C20.6465 15.7857 19.8604 15.3487 18.8913 15.3321C17.9172 15.3148 17.1185 15.7608 16.6501 16.3958C16.1816 17.0308 16.0001 17.8106 16.0001 18.5596V24.3196H13.4401V13.4396Z" fill="#708284"/>
</svg>
