<svg width="32" height="32" viewBox="0 0 32 32" fill="none" xmlns="http://www.w3.org/2000/svg">
<g clip-path="url(#clip0_1015_4049)">
<path d="M21.8998 3.5C18.0723 3.5 14.9598 6.6125 14.9598 10.44C14.9598 10.67 15.0173 10.895 15.0398 11.12C10.3073 10.6675 6.12229 8.3875 3.27979 4.9C3.14729 4.7325 2.94229 4.6425 2.72729 4.6575C2.51479 4.6725 2.32479 4.795 2.21979 4.98C1.62229 6.0075 1.27979 7.19 1.27979 8.46C1.27979 9.9975 1.82979 11.405 2.67979 12.56C2.51479 12.4875 2.33479 12.4475 2.17979 12.36C1.98229 12.255 1.74479 12.26 1.55229 12.375C1.35979 12.49 1.24229 12.6975 1.23979 12.92V13C1.23979 15.3575 2.45979 17.405 4.25979 18.66C4.23979 18.6575 4.21979 18.665 4.19979 18.66C3.97979 18.6225 3.75729 18.7 3.60979 18.8675C3.46229 19.035 3.41479 19.2675 3.47979 19.48C4.19479 21.7025 6.01979 23.4 8.27979 24.02C6.47979 25.09 4.39229 25.72 2.13979 25.72C1.65229 25.72 1.18479 25.695 0.719787 25.64C0.419787 25.6 0.132286 25.775 0.0322866 26.06C-0.0702134 26.345 0.0422867 26.6625 0.299787 26.82C3.18729 28.6725 6.61479 29.76 10.2998 29.76C16.2723 29.76 20.9573 27.265 24.0998 23.7C27.2423 20.135 28.8798 15.505 28.8798 11.18C28.8798 10.9975 28.8648 10.82 28.8598 10.64C30.0323 9.7425 31.0798 8.69 31.8998 7.46C32.0623 7.2225 32.0448 6.905 31.8573 6.685C31.6723 6.465 31.3598 6.3975 31.0998 6.52C30.7698 6.6675 30.3848 6.6825 30.0398 6.8C30.4948 6.1925 30.8848 5.5375 31.1198 4.8C31.1998 4.5475 31.1123 4.27 30.9048 4.105C30.6973 3.9425 30.4073 3.9225 30.1798 4.06C29.0873 4.7075 27.8773 5.1625 26.5998 5.44C25.3598 4.28 23.7273 3.5 21.8998 3.5ZM21.8998 4.78C23.5323 4.78 25.0073 5.4775 26.0398 6.58C26.1948 6.74 26.4223 6.8075 26.6398 6.76C27.4748 6.595 28.2673 6.3525 29.0398 6.04C28.5948 6.64 28.0448 7.1525 27.3998 7.54C27.1073 7.6825 26.9698 8.02 27.0773 8.3275C27.1823 8.6325 27.5023 8.81 27.8198 8.74C28.4598 8.6625 29.0298 8.4025 29.6398 8.24C29.0923 8.8325 28.4923 9.3675 27.8398 9.84C27.6623 9.97 27.5648 10.18 27.5798 10.4C27.5898 10.66 27.5998 10.9175 27.5998 11.18C27.5998 15.18 26.0648 19.5225 23.1398 22.84C20.2148 26.1575 15.9198 28.48 10.2998 28.48C7.74729 28.48 5.33729 27.915 3.15979 26.92C5.85979 26.7125 8.34979 25.7575 10.3598 24.18C10.5698 24.0125 10.6523 23.7325 10.5673 23.4775C10.4823 23.2225 10.2473 23.0475 9.97978 23.04C7.86979 23.0025 6.10229 21.775 5.15979 20.04C5.19479 20.04 5.22479 20.04 5.25979 20.04C5.89229 20.04 6.51729 19.96 7.09979 19.8C7.37979 19.7175 7.57229 19.4575 7.56229 19.165C7.55229 18.8725 7.34479 18.6225 7.05979 18.56C4.78229 18.1 3.07479 16.245 2.67979 13.94C3.32479 14.1625 3.98479 14.3375 4.69979 14.36C4.99229 14.3775 5.25729 14.195 5.34729 13.9175C5.43729 13.64 5.32729 13.335 5.07979 13.18C3.55979 12.1625 2.55979 10.43 2.55979 8.46C2.55979 7.73 2.74979 7.06 2.99979 6.42C6.19979 9.9325 10.6798 12.265 15.7398 12.52C15.9398 12.53 16.1348 12.4475 16.2648 12.295C16.3948 12.14 16.4448 11.935 16.3998 11.74C16.3023 11.325 16.2398 10.885 16.2398 10.44C16.2398 7.305 18.7648 4.78 21.8998 4.78Z" fill="#708284"/>
</g>
<defs>
<clipPath id="clip0_1015_4049">
<rect width="32" height="32" fill="white"/>
</clipPath>
</defs>
</svg>
